…
# Exploratory Data Analysis

## Question 1

*How do station locations (such as population density, proximity to
colleges, and nearby commercial areas) relate to BlueBikes stations
running empty or full, and what can patterns in start/end-times tell us
about when and where congestion occurs?*

    ## # A tibble: 4,669,660 × 27
    ##    ride_id          rideable_type started_at          ended_at           
    ##    <chr>            <chr>         <dttm>              <dttm>             
    ##  1 41D45A0F4484EE42 electric_bike 2024-11-09 15:04:32 2024-11-09 15:12:26
    ##  2 CC44E57ADF2C19D2 classic_bike  2024-11-01 14:34:44 2024-11-01 14:44:56
    ##  3 3303DF4B71FEE65F electric_bike 2024-11-23 01:15:10 2024-11-23 01:27:39
    ##  4 FBF84AEA696288B2 classic_bike  2024-11-05 22:29:11 2024-11-05 22:48:35
    ##  5 6B14D741EB5650EB electric_bike 2024-11-06 16:39:56 2024-11-06 16:48:43
    ##  6 93BB0BF1F6CEFE1C classic_bike  2024-11-08 09:50:12 2024-11-08 10:03:20
    ##  7 0CD1D4AA59211457 classic_bike  2024-11-11 08:53:21 2024-11-11 09:07:00
    ##  8 63431AFEBBE64D86 classic_bike  2024-11-13 10:25:15 2024-11-13 10:43:11
    ##  9 4EAC9AB0514EC651 classic_bike  2024-11-04 09:17:21 2024-11-04 09:34:25
    ## 10 099D504F3BFC4E18 classic_bike  2024-11-20 09:28:12 2024-11-20 09:43:34
    ## # ℹ 4,669,650 more rows
    ## # ℹ 23 more variables: start_station_name <chr>, start_station_id <chr>,
    ## #   end_station_name <chr>, end_station_id <chr>, start_lat <dbl>,
    ## #   start_lng <dbl>, end_lat <dbl>, end_lng <dbl>, member_casual <chr>,
    ## #   NAME.x <chr>, Lat.x <dbl>, Long.x <dbl>, `Seasonal Status.x` <chr>,
    ## #   start_municipality <chr>, `Total Docks.x` <dbl>,
    ## #   `Station ID (to match to historic system data).x` <chr>, NAME.y <chr>, …
…
